####
#
# OBJ File Generated by Meshlab
#
####
# Object Mecanix_L3_left.obj
#
# Vertices: 253
# Faces: 373
#
####
v 0.152365 0.188450 0.241246
v 0.152406 0.188566 0.242259
v 0.152329 0.189316 0.241786
v 0.152044 0.187978 0.243109
v 0.152365 0.188692 0.243260
v 0.155294 0.183277 0.229216
v 0.156170 0.182948 0.227968
v 0.162258 0.187883 0.242709
v 0.162975 0.188497 0.242093
v 0.161944 0.188631 0.243134
v 0.165193 0.185212 0.238667
v 0.165101 0.184686 0.239540
v 0.165260 0.183770 0.238742
v 0.164285 0.185137 0.241734
v 0.153943 0.186604 0.230420
v 0.153474 0.186808 0.231401
v 0.154158 0.185507 0.231227
v 0.154137 0.184156 0.231342
v 0.153837 0.184769 0.232223
v 0.167627 0.186277 0.232473
v 0.151950 0.184326 0.235748
v 0.166549 0.187590 0.237816
v 0.151767 0.188263 0.245549
v 0.152288 0.187852 0.235339
v 0.152064 0.188986 0.239078
v 0.151731 0.189570 0.239937
v 0.152101 0.189323 0.240819
v 0.152691 0.186758 0.235587
v 0.152685 0.185648 0.235583
v 0.152530 0.186545 0.236794
v 0.152753 0.190071 0.245925
v 0.153367 0.190611 0.246474
v 0.153458 0.188150 0.246916
v 0.154246 0.188531 0.246456
v 0.153893 0.189687 0.246270
v 0.153420 0.188852 0.246377
v 0.155020 0.187977 0.246501
v 0.154709 0.190108 0.246185
v 0.155405 0.189658 0.245740
v 0.155445 0.190486 0.245926
v 0.156104 0.187711 0.246096
v 0.156838 0.184739 0.226951
v 0.157834 0.184049 0.226310
v 0.157046 0.183564 0.227118
v 0.160015 0.186240 0.245855
v 0.160380 0.186358 0.245270
v 0.159643 0.187005 0.245111
v 0.161166 0.189418 0.243738
v 0.161974 0.189477 0.243310
v 0.160287 0.187632 0.244329
v 0.161326 0.187745 0.243591
v 0.160774 0.188507 0.243885
v 0.160761 0.182738 0.226066
v 0.161597 0.182007 0.226448
v 0.160900 0.181752 0.225918
v 0.162315 0.182165 0.227178
v 0.162059 0.183521 0.226982
v 0.162622 0.183287 0.227539
v 0.161837 0.182807 0.226779
v 0.161998 0.186848 0.243113
v 0.162620 0.184297 0.227453
v 0.163338 0.184265 0.228179
v 0.162577 0.185902 0.243150
v 0.162675 0.187070 0.242267
v 0.163970 0.183325 0.229127
v 0.163920 0.182306 0.229229
v 0.163438 0.182424 0.228549
v 0.164612 0.185569 0.229036
v 0.164807 0.185613 0.239904
v 0.164921 0.184649 0.240968
v 0.166360 0.186242 0.230788
v 0.165753 0.186027 0.230178
v 0.165507 0.182966 0.231831
v 0.165672 0.185792 0.237610
v 0.165995 0.185336 0.236517
v 0.166415 0.186079 0.236612
v 0.166431 0.185381 0.235745
v 0.166953 0.185942 0.235611
v 0.168032 0.186351 0.233953
v 0.168465 0.186762 0.234675
v 0.155171 0.185770 0.228776
v 0.160320 0.183767 0.225877
v 0.159372 0.183446 0.225840
v 0.159861 0.184384 0.225653
v 0.152418 0.188190 0.246723
v 0.155886 0.183932 0.228573
v 0.156482 0.184098 0.227666
v 0.159220 0.182273 0.225788
v 0.157895 0.182101 0.226093
v 0.158574 0.183006 0.226040
v 0.164347 0.185610 0.240860
v 0.163834 0.188708 0.241329
v 0.157003 0.187329 0.245984
v 0.151445 0.187291 0.242612
v 0.158403 0.189066 0.244404
v 0.158322 0.188247 0.244683
v 0.158988 0.188531 0.244408
v 0.154359 0.183282 0.230508
v 0.152296 0.189731 0.243345
v 0.152429 0.189294 0.242710
v 0.161760 0.186161 0.243828
v 0.165507 0.187877 0.239203
v 0.165945 0.187563 0.238491
v 0.165534 0.184876 0.237173
v 0.165271 0.184571 0.238044
v 0.153238 0.183753 0.232751
v 0.153394 0.185147 0.233377
v 0.152344 0.188309 0.239870
v 0.152297 0.190160 0.245423
v 0.152177 0.189874 0.244636
v 0.164859 0.188007 0.239992
v 0.164944 0.186899 0.239468
v 0.164067 0.187983 0.240780
v 0.154210 0.190661 0.246631
v 0.163169 0.186192 0.242083
v 0.163358 0.185425 0.242787
v 0.163754 0.185688 0.241762
v 0.151229 0.186528 0.240817
v 0.151175 0.186889 0.241855
v 0.152921 0.187229 0.232338
v 0.153111 0.186667 0.233341
v 0.152424 0.187650 0.236272
v 0.156171 0.185721 0.226953
v 0.155950 0.185015 0.228088
v 0.157766 0.183045 0.226468
v 0.161227 0.185620 0.226061
v 0.164389 0.182676 0.229859
v 0.165030 0.182912 0.230851
v 0.165410 0.183800 0.236917
v 0.166137 0.184203 0.234747
v 0.165921 0.183417 0.234471
v 0.166308 0.184338 0.233884
v 0.165906 0.186697 0.237896
v 0.166550 0.186744 0.237071
v 0.165257 0.186275 0.238770
v 0.166502 0.184987 0.234948
v 0.152543 0.188672 0.246126
v 0.154828 0.184028 0.230113
v 0.156973 0.182648 0.226964
v 0.162563 0.185342 0.227207
v 0.155609 0.185928 0.227736
v 0.163326 0.187470 0.241468
v 0.152037 0.187074 0.239944
v 0.152346 0.187209 0.238893
v 0.152394 0.188093 0.238503
v 0.151363 0.186231 0.239971
v 0.163739 0.186573 0.241093
v 0.164253 0.187361 0.240390
v 0.152083 0.185893 0.237760
v 0.151927 0.186378 0.238976
v 0.152250 0.185259 0.236448
v 0.152455 0.187013 0.237813
v 0.157200 0.185097 0.226257
v 0.161711 0.184881 0.226567
v 0.161886 0.184234 0.226791
v 0.162813 0.189510 0.242677
v 0.165826 0.183282 0.232673
v 0.166002 0.184550 0.235669
v 0.155603 0.188218 0.245975
v 0.155115 0.188789 0.245963
v 0.159352 0.189412 0.244215
v 0.158825 0.190078 0.244349
v 0.151997 0.188209 0.243938
v 0.159787 0.190369 0.244260
v 0.152777 0.183980 0.233826
v 0.153649 0.185957 0.232383
v 0.152717 0.184698 0.234707
v 0.153041 0.185862 0.234378
v 0.152307 0.189254 0.244075
v 0.151937 0.190346 0.244036
v 0.152215 0.187814 0.240734
v 0.151738 0.187084 0.240958
v 0.152149 0.188814 0.244839
v 0.152446 0.189261 0.245555
v 0.153166 0.189672 0.246153
v 0.154685 0.185458 0.230031
v 0.155921 0.189057 0.245415
v 0.155991 0.190242 0.245455
v 0.158765 0.184162 0.225766
v 0.158006 0.185001 0.225711
v 0.158703 0.187359 0.245188
v 0.157773 0.187291 0.245660
v 0.158519 0.186898 0.245822
v 0.159256 0.186587 0.245881
v 0.159305 0.187720 0.244666
v 0.159947 0.185220 0.225494
v 0.160493 0.186840 0.244668
v 0.161106 0.186137 0.244685
v 0.160862 0.184813 0.225966
v 0.161094 0.183988 0.226214
v 0.162878 0.182573 0.227845
v 0.163292 0.183390 0.228282
v 0.163984 0.184168 0.228907
v 0.163998 0.185884 0.228269
v 0.165225 0.185852 0.229603
v 0.164573 0.184759 0.229363
v 0.163915 0.185041 0.228536
v 0.164383 0.186533 0.240246
v 0.166351 0.184827 0.232229
v 0.166349 0.185324 0.231578
v 0.166875 0.185592 0.232312
v 0.167237 0.185668 0.233656
v 0.166678 0.184985 0.233872
v 0.166663 0.185022 0.232989
v 0.167011 0.185527 0.234543
v 0.167627 0.186329 0.235135
v 0.167201 0.186257 0.231840
v 0.167733 0.186694 0.235675
v 0.156328 0.188296 0.245480
v 0.156965 0.187803 0.245516
v 0.157352 0.188298 0.244989
v 0.152725 0.187043 0.234515
v 0.166594 0.185933 0.231355
v 0.165896 0.185329 0.230820
v 0.151625 0.188008 0.244627
v 0.152391 0.187891 0.237238
v 0.151958 0.187556 0.241644
v 0.155314 0.184629 0.229300
v 0.161275 0.183291 0.226373
v 0.161869 0.185637 0.226549
v 0.164805 0.184202 0.229911
v 0.165248 0.185045 0.230085
v 0.165801 0.183575 0.235355
v 0.165610 0.183732 0.236123
v 0.152127 0.187930 0.242325
v 0.167179 0.186713 0.236341
v 0.157300 0.190072 0.244716
v 0.159819 0.188449 0.244243
v 0.160121 0.182155 0.225803
v 0.163177 0.184997 0.227850
v 0.154611 0.189309 0.246117
v 0.157498 0.189072 0.244651
v 0.156725 0.188921 0.244996
v 0.157997 0.187768 0.245116
v 0.158022 0.189811 0.244461
v 0.158986 0.185061 0.225422
v 0.160240 0.189503 0.244040
v 0.161124 0.186977 0.243974
v 0.163304 0.185733 0.227727
v 0.164616 0.183470 0.229956
v 0.165163 0.183721 0.230696
v 0.165925 0.183979 0.232127
v 0.165906 0.184595 0.231445
v 0.160483 0.185853 0.225555
v 0.156500 0.189756 0.245033
v 0.165677 0.184437 0.236430
v 0.167473 0.185930 0.233102
v 0.159923 0.182949 0.225863
v 0.165476 0.184501 0.230743
v 0.166195 0.184219 0.232900
v 0.166022 0.183561 0.233538
v 0.167557 0.186067 0.234523
v 0.165566 0.183711 0.231449
# 253 vertices, 0 vertices normals

f 1 2 3
f 2 4 5
f 8 9 10
f 11 12 13
f 17 18 19
f 28 29 30
f 34 35 36
f 38 39 40
f 42 43 44
f 45 46 47
f 50 51 52
f 53 54 55
f 57 58 59
f 60 8 51
f 61 58 57
f 58 61 62
f 63 64 60
f 8 64 9
f 65 66 67
f 12 69 70
f 74 75 76
f 77 78 76
f 82 83 84
f 86 87 7
f 88 89 90
f 91 14 70
f 95 96 97
f 99 100 5
f 104 74 105
f 106 107 19
f 27 26 108
f 102 111 112
f 63 60 101
f 115 116 117
f 123 42 124
f 125 43 90
f 11 69 12
f 130 131 132
f 133 74 134
f 135 74 133
f 133 103 135
f 130 132 136
f 36 137 85
f 18 138 98
f 106 19 18
f 28 30 122
f 7 44 139
f 86 124 87
f 92 142 113
f 15 17 16
f 143 108 144
f 108 25 145
f 143 146 118
f 142 147 148
f 29 151 30
f 30 149 152
f 43 42 153
f 154 140 155
f 9 156 10
f 91 117 14
f 105 11 13
f 91 70 69
f 75 158 77
f 91 147 117
f 117 147 115
f 150 146 143
f 37 159 160
f 161 162 95
f 166 19 107
f 141 124 81
f 107 121 166
f 107 165 167
f 107 167 168
f 169 170 99
f 150 144 152
f 150 152 149
f 143 144 150
f 171 108 143
f 171 143 172
f 173 110 169
f 173 174 110
f 29 168 167
f 5 4 163
f 166 16 17
f 120 16 166
f 121 120 166
f 36 33 34
f 175 36 35
f 17 15 176
f 177 178 39
f 42 44 87
f 179 43 180
f 180 43 153
f 83 88 90
f 181 182 183
f 181 183 184
f 96 181 185
f 47 187 50
f 189 154 190
f 191 58 192
f 142 64 115
f 142 115 147
f 9 64 142
f 62 193 192
f 127 66 65
f 68 196 197
f 148 198 112
f 103 102 112
f 199 200 201
f 202 203 204
f 78 205 206
f 136 205 78
f 75 77 76
f 209 210 211
f 212 168 28
f 213 200 214
f 43 179 90
f 75 74 104
f 196 68 195
f 30 151 149
f 108 171 1
f 121 168 212
f 86 7 6
f 169 110 170
f 105 74 11
f 198 148 147
f 69 112 198
f 207 20 201
f 29 28 168
f 107 168 121
f 108 26 25
f 107 106 165
f 145 216 152
f 17 19 166
f 135 112 69
f 136 203 205
f 216 122 30
f 217 1 171
f 86 6 218
f 6 138 218
f 172 143 118
f 94 217 119
f 152 216 30
f 176 218 138
f 141 123 124
f 124 42 87
f 125 90 89
f 139 44 125
f 82 219 53
f 59 53 219
f 221 196 222
f 135 11 74
f 11 135 69
f 223 158 224
f 134 74 76
f 135 103 112
f 158 136 77
f 133 22 103
f 113 148 111
f 176 138 18
f 7 87 44
f 176 18 17
f 138 6 98
f 27 108 1
f 217 225 1
f 225 2 1
f 92 9 142
f 144 108 145
f 145 152 144
f 218 176 81
f 86 218 124
f 81 124 218
f 113 142 148
f 209 177 159
f 228 97 185
f 140 230 61
f 222 195 72
f 82 84 189
f 5 163 169
f 175 174 137
f 34 231 35
f 38 114 35
f 232 233 211
f 182 234 210
f 93 210 41
f 228 237 161
f 187 188 238
f 59 58 56
f 238 60 51
f 58 62 192
f 194 197 239
f 193 196 221
f 128 240 241
f 242 243 199
f 129 224 246
f 20 247 201
f 202 247 79
f 248 53 229
f 190 155 219
f 62 197 193
f 249 221 222
f 157 242 250
f 132 131 251
f 75 246 158
f 199 204 250
f 136 132 203
f 235 232 95
f 122 24 28
f 2 225 4
f 175 35 32
f 32 35 114
f 209 233 177
f 50 228 185
f 185 97 96
f 52 51 10
f 220 154 126
f 57 155 61
f 60 64 8
f 56 58 191
f 155 140 61
f 10 156 49
f 198 147 91
f 198 91 69
f 207 201 213
f 201 200 213
f 204 201 247
f 203 202 205
f 205 202 252
f 134 76 226
f 214 243 249
f 34 37 160
f 190 82 189
f 189 84 186
f 95 162 235
f 236 84 179
f 164 162 161
f 228 161 97
f 97 161 95
f 23 173 215
f 215 173 163
f 174 109 110
f 100 3 2
f 169 163 173
f 175 31 174
f 31 109 174
f 36 175 137
f 31 175 32
f 160 177 39
f 177 245 178
f 39 178 40
f 160 39 231
f 231 34 160
f 35 231 38
f 38 231 39
f 159 41 209
f 93 182 210
f 210 234 211
f 41 210 209
f 234 96 211
f 96 232 211
f 83 248 88
f 83 90 179
f 181 234 182
f 47 181 184
f 96 234 181
f 185 181 47
f 47 46 187
f 228 52 237
f 47 184 45
f 186 244 189
f 189 244 126
f 101 238 188
f 48 52 10
f 48 10 49
f 50 187 238
f 50 238 51
f 237 52 48
f 164 161 237
f 189 126 154
f 190 154 155
f 238 101 60
f 10 51 8
f 67 191 192
f 62 61 230
f 67 192 65
f 192 193 65
f 194 68 197
f 239 197 230
f 65 240 127
f 240 193 221
f 197 196 193
f 128 127 240
f 241 240 221
f 71 214 72
f 214 249 222
f 214 222 72
f 250 242 199
f 199 243 200
f 129 246 104
f 204 199 201
f 247 202 204
f 206 205 252
f 77 136 78
f 78 206 208
f 78 208 226
f 78 226 76
f 134 22 133
f 206 252 80
f 21 151 29
f 21 29 167
f 82 248 83
f 84 83 179
f 233 209 211
f 94 225 217
f 71 213 214
f 214 200 243
f 177 160 159
f 225 94 4
f 95 232 96
f 196 195 222
f 186 84 236
f 169 99 5
f 100 2 5
f 27 1 3
f 233 232 245
f 232 227 245
f 140 239 230
f 129 104 105
f 252 202 79
f 128 241 253
f 128 253 73
f 249 253 241
f 249 241 221
f 79 80 252
f 229 88 248
f 119 217 172
f 217 171 172
f 174 173 23
f 174 23 137
f 28 24 212
f 125 44 43
f 236 179 180
f 50 52 228
f 47 50 185
f 82 190 219
f 229 53 55
f 248 82 53
f 59 54 53
f 219 155 57
f 219 57 59
f 220 140 154
f 62 230 197
f 240 65 193
f 249 243 253
f 73 253 242
f 253 243 242
f 251 157 250
f 157 73 242
f 132 251 250
f 130 223 131
f 223 130 158
f 224 158 246
f 75 104 246
f 204 203 132
f 250 204 132
f 158 130 136
f 33 36 85
f 111 148 112
f 64 63 115
f 115 63 116
f 139 125 89
f 235 227 232
f 245 177 233
# 373 faces, 0 coords texture

# End of File
